{
	"info": {
		"_postman_id": "8d1d0e96-2bcc-49f8-aef3-0734e85313b8",
		"name": "Order Project",
		"schema": "https://schema.getpostman.com/json/collection/v2.1.0/collection.json",
		"_exporter_id": "25490848"
	},
	"item": [
		{
			"name": "Customer",
			"item": [
				{
					"name": "Get Customers",
					"request": {
						"method": "GET",
						"header": [],
						"url": {
							"raw": "{{server}}/customers",
							"host": [
								"{{server}}"
							],
							"path": [
								"customers"
							]
						}
					},
					"response": []
				},
				{
					"name": "Get One Customers",
					"request": {
						"method": "GET",
						"header": [],
						"url": {
							"raw": "{{server}}/customers/:id",
							"host": [
								"{{server}}"
							],
							"path": [
								"customers",
								":id"
							],
							"variable": [
								{
									"key": "id",
									"value": null
								}
							]
						}
					},
					"response": []
				},
				{
					"name": "Add New Customer",
					"request": {
						"method": "POST",
						"header": [],
						"body": {
							"mode": "raw",
							"raw": "{\r\n    \"name\" : \"Customer 3\",\r\n    \"age\" : 15,\r\n    \"tel\" : \"0819999999\",\r\n    \"gender\" : \"M\"\r\n}",
							"options": {
								"raw": {
									"language": "json"
								}
							}
						},
						"url": {
							"raw": "{{server}}/customers",
							"host": [
								"{{server}}"
							],
							"path": [
								"customers"
							]
						}
					},
					"response": []
				},
				{
					"name": "Update Customer",
					"request": {
						"method": "PATCH",
						"header": [],
						"body": {
							"mode": "raw",
							"raw": "{\r\n    \"tel\" : \"0901111111\"\r\n}",
							"options": {
								"raw": {
									"language": "json"
								}
							}
						},
						"url": {
							"raw": "{{server}}/customers/:id",
							"host": [
								"{{server}}"
							],
							"path": [
								"customers",
								":id"
							],
							"variable": [
								{
									"key": "id",
									"value": "3"
								}
							]
						}
					},
					"response": []
				},
				{
					"name": "Delete Customer",
					"request": {
						"method": "DELETE",
						"header": [],
						"url": {
							"raw": "{{server}}/customers/:id",
							"host": [
								"{{server}}"
							],
							"path": [
								"customers",
								":id"
							],
							"variable": [
								{
									"key": "id",
									"value": null
								}
							]
						}
					},
					"response": []
				}
			]
		},
		{
			"name": "Product",
			"item": [
				{
					"name": "Get Products",
					"request": {
						"method": "GET",
						"header": [],
						"url": {
							"raw": "{{server}}/products",
							"host": [
								"{{server}}"
							],
							"path": [
								"products"
							]
						}
					},
					"response": []
				},
				{
					"name": "Get One Products",
					"request": {
						"method": "GET",
						"header": [],
						"url": {
							"raw": "{{server}}/products/:id",
							"host": [
								"{{server}}"
							],
							"path": [
								"products",
								":id"
							],
							"variable": [
								{
									"key": "id",
									"value": null
								}
							]
						}
					},
					"response": []
				},
				{
					"name": "Add New Product",
					"request": {
						"method": "POST",
						"header": [],
						"body": {
							"mode": "raw",
							"raw": "{\r\n    \"name\" : \"ยำยำ\",\r\n    \"price\" : 50\r\n}",
							"options": {
								"raw": {
									"language": "json"
								}
							}
						},
						"url": {
							"raw": "{{server}}/products",
							"host": [
								"{{server}}"
							],
							"path": [
								"products"
							]
						}
					},
					"response": []
				},
				{
					"name": "Update Product",
					"request": {
						"method": "PATCH",
						"header": [],
						"body": {
							"mode": "raw",
							"raw": "{\r\n    \"price\" : 15\r\n}",
							"options": {
								"raw": {
									"language": "json"
								}
							}
						},
						"url": {
							"raw": "{{server}}/products/:id",
							"host": [
								"{{server}}"
							],
							"path": [
								"products",
								":id"
							],
							"variable": [
								{
									"key": "id",
									"value": "3"
								}
							]
						}
					},
					"response": []
				},
				{
					"name": "Delete Product",
					"request": {
						"method": "DELETE",
						"header": [],
						"url": {
							"raw": "{{server}}/products/:id",
							"host": [
								"{{server}}"
							],
							"path": [
								"products",
								":id"
							],
							"variable": [
								{
									"key": "id",
									"value": null
								}
							]
						}
					},
					"response": []
				}
			]
		},
		{
			"name": "Order",
			"item": [
				{
					"name": "Get Orders",
					"request": {
						"method": "GET",
						"header": [],
						"url": {
							"raw": "{{server}}/orders",
							"host": [
								"{{server}}"
							],
							"path": [
								"orders"
							]
						}
					},
					"response": []
				},
				{
					"name": "Add New Order",
					"request": {
						"method": "POST",
						"header": [],
						"body": {
							"mode": "raw",
							"raw": "{\r\n    \"customerId\" : 1,\r\n    \"orderItems\" : [\r\n        {\r\n            \"productId\": 1,\r\n            \"amount\": 3\r\n        },\r\n        {\r\n            \"productId\": 2,\r\n            \"amount\": 1\r\n        }\r\n    ]\r\n}",
							"options": {
								"raw": {
									"language": "json"
								}
							}
						},
						"url": {
							"raw": "{{server}}/orders",
							"host": [
								"{{server}}"
							],
							"path": [
								"orders"
							]
						}
					},
					"response": []
				},
				{
					"name": "Delete Order",
					"request": {
						"method": "DELETE",
						"header": [],
						"body": {
							"mode": "raw",
							"raw": "{\r\n    \"customerId\" : 1,\r\n    \"orderItem\" : [\r\n        {\r\n            \"productId\": 1,\r\n            \"amount\": 3\r\n        },\r\n        {\r\n            \"productId\": 2,\r\n            \"amount\": 1\r\n        }\r\n    ]\r\n}",
							"options": {
								"raw": {
									"language": "json"
								}
							}
						},
						"url": {
							"raw": "{{server}}/orders/:id",
							"host": [
								"{{server}}"
							],
							"path": [
								"orders",
								":id"
							],
							"variable": [
								{
									"key": "id",
									"value": "11"
								}
							]
						}
					},
					"response": []
				}
			]
		}
	],
	"event": [
		{
			"listen": "prerequest",
			"script": {
				"type": "text/javascript",
				"exec": [
					""
				]
			}
		},
		{
			"listen": "test",
			"script": {
				"type": "text/javascript",
				"exec": [
					""
				]
			}
		}
	],
	"variable": [
		{
			"key": "server",
			"value": "http://localhost:3000",
			"type": "string"
		}
	]
}